,追加FAQ,,,
Q,新巻鮭はどうのような形で届きますか？,,,
A,【例】1本物の新巻鮭はすべて姿切身（2枚卸　加工無料）となっており、4分割の真空パックでお届け致します。切らないタイプをご希望の場合もご対応を致します。,,,
Q,群来の海とお刺身数の子の違いを教えて下さい？,,,
A,同じ石狩産の数の子ですが、群来の海は塩抜きに8〜9時間程かかります。お刺身数の子は薄皮を既に取り除き、薄い塩水に漬けた処理を施しているので、30分程度の塩抜きですぐにお召し上がりいただけます。,,,
Q,雪中熟成鮭の予約をしたいのですが、できますか？予約できる場合は入荷時の連絡はありますか？,,,
A,ご予約は可能でございます。現在の販売開始時期は未定ですが、昨年は3月中旬頃より販売を開始致しました。販売形態や価格等決まり次第、ご連絡させていただきます。,,,
Q,さざ浪漬セットや吟醸切身セットの内容を変更できませんか？,,,
A,内容によってお値段が変わりますが、セット内容の変更は可能です。,,,※単品で詰め合わせ別途化粧箱代が変わります。
Q,手まり筋子三昧のセット内容を変更できませんか？,,,
A,お値段が変わりますが、セット内容の変更は可能です。,,,※単品で詰め合わせ別途化粧箱代が変わります。
Q,いくら手まり三昧やいくら三昧のセット内容を変更できませんか？,,,
A,お値段が変わりますが、セット内容の変更は可能です。,,,※単品で詰め合わせ別途化粧箱代が変わります。
Q,飯寿司は冷凍で届きますか？冷蔵ですか？,,,
A,冷凍でお届け致します。,,,
Q,飯寿司は化粧箱に入れないでお届けをすることはできますか？値段は変わりますか？,,,
A,はい、承れます。化粧箱にお入れしない場合は、化粧箱入り価格の200円引きとなります。,,,
Q,飯寿司の500ｇは何人前（大人で）くらいですか？1kgは何人前（大人で）くらいですか？目安を教えて下さい。,,,
A,一度にどのくらいお召し上がりいただくかにもよりますが、500ｇで2〜3人前、1kgで4〜6人前程度かと思われます。,,,
Q,鮭ルイベ漬ってなんですか？,,,
A,「ルイベ」とは一般的に凍らせた魚をお刺身でお召し上がるものですが、弊社の「鮭ルイベ漬」は鮭といくらを醤油ダレに漬け込んだ生珍味で、とろっとした食感が特徴です。ベストセラー商品で、ご飯のおともに最適です。弊社でも大人気の一品です。,,,
Q,ロッキーサーモンを贈答品に使いたいのですが固いですか？,,,
A,見た目は硬そうに見えますが、やわらかく仕上げており、手でむしって召し上がれます。おつまみにも最適ですし、珍しい佐藤水産オリジナルの商品なので、ご贈答にも喜ばれます。,,,
Q,サーモンロールはスライスして届きますか？,,,
A,400ｇ箱入はスライスはされておらず1本の状態でのお届けですが、スライスタイプも各種用意してあります。,,,
Q,パンに合う詰め合わせのセット内容を変更できませんか？,,,
A,こちらの内容はご変更が出来かねますが、ご希望の商品を化粧箱にお詰めして、お届けをすることは可能です。,,,
Q,海の幸ゼリー寄せ6個入のセット内容を変更できませんか？,,,
A,お値段が変わりますが、セット内容の変更は可能です。,,,※単品で詰め合わせ別途化粧箱代が変わります。
Q,熊笹かまぼこセットのセット内容を変更できませんか？,,,
A,お値段が変わりますが、セット内容の変更は可能です。,,,※単品で詰め合わせ別途化粧箱代が変わります。
Q,熊笹北の幸セットのセット内容を変更できませんか？,,,
A,お値段が変わりますが、セット内容の変更は可能です。,,,※単品で詰め合わせ別途化粧箱代が変わります。
Q,潮鼓　帆立燻油ソフトのセット内容を変更できませんか？,,,
A,申し訳ございませんが、こちらのセット内容の変更は出来かねます。,,,
Q,北の炉端焼きのセット内容を変更できませんか？,,,
A,単品で干物をお選びいただき、お好みに合わせてお送りする事が可能です。,,,
Q,鮭醤油セットの内容を変更できませんか？,,,
A,お値段が変わりますが、セット内容の変更は可能です。,,,※単品で詰め合わせ別途化粧箱代が変わります。
Q,石狩ラーメンセットの内容を変更できませんか？,,,
A,お値段が変わりますが、セット内容の変更は可能です。,,,※単品で詰め合わせ別途化粧箱代が変わります。
Q,缶詰　詰合わせの内容を変更できませんか？,,,
A,お値段が変わりますが、セット内容の変更は可能です。,,,※単品で詰め合わせ別途化粧箱代が変わります。
Q,蟹は冷凍と朝ゆで毛蟹・活毛蟹では味が大分違いますか？冷凍すると美味しくなくなりますか？,,,
A,やはり鮮度が一番良いのは「朝茹で毛蟹（活茹で）」です。「活毛蟹」は生きた状態でのお届けになる為、ご自身で茹でなければいけませんので、少し大変かもしれませんが茹でたてをお召し上がりいただけます。「冷凍ボイル毛蟹」においても急速冷凍をかけ、鮮度を閉じ込めた状態で冷凍されていますので、極端に味が美味しくなくなるという事ではありません。解凍方法が難しいですが、美味しくお召し上がりいただけます。,,,
Q,蟹以外も注文したいのですが送料は一緒ですか？一緒に届きますか？,,,
A,活茹で毛蟹、活毛蟹は出荷場所が異なり、航空便（冷蔵）でのお届けとなるので、他商品とのご同梱が出来かねます。その他の商品は980円（道外）の送料でまとめてお届けが可能です。また、別の便でのお届けにはなりますが、同じ日時にご指定を掛ける事は可能です。,,,
Q,蟹の納期はどのくらいですか？お届けの時間指定はできますか？,,,
A,通常商品と同様、ご注文から1週間前後でのお届けです。11月1日〜12月27日までのお届け期間とさせていただいております。お届けの日時指定はもちろん承れますが、天候や交通状況によりましては、遅延する場合もございますので、予めご了承ください。,,,
Q,蟹の詰合わせの内容を変更できませんか？,,,
A,申し訳ございませんが、こちらのセット内容の変更は出来かねます。,,,
Q,鍋のセット内容を変更できませんか？,,,
A,申し訳ございませんが、こちらのセット内容の変更は出来かねます。,,,
Q,帆立貝柱は500ｇでいくつ位ありますか？目安を教えて下さい。,,,
A,あくまでg数ですので、一概にはお応え出来かねますが、10〜12粒前後になります。,,,
Q,ぼたんえびは500ｇでいくつ位ありますか？目安を教えて下さい。,,,
A,あくまでg数ですので、一概にはお応え出来かねますが、9〜11尾前後になります。,,,
Q,北海しまえびは500ｇでいくつ位ありますか？目安を教えて下さい。,,,
A,あくまでg数ですので、一概にはお応え出来かねますが、26〜30尾前後になります。,,,
Q,甘えびは500ｇでいくつ位ありますか？目安を教えて下さい。,,,
A,あくまでg数ですので、一概にはお応え出来かねますが、18〜20尾前後になります。,,,
Q,昆布巻セットの内容を変更できませんか？,,,
A,お値段が変わりますが、セット内容の変更は可能です。,,,※単品で詰め合わせ別途化粧箱代が変わります。
Q,サイコロ昆布巻セットの内容を変更できませんか？,,,
A,お値段が変わりますが、セット内容の変更は可能です。,,,※単品で詰め合わせ別途化粧箱代が変わります。
Q,潮合の化粧箱は有料ですか？,,,
A,有料になります。サイズにより価格が異なります。,,,
Q,浪の舞の化粧箱は有料ですか？,,,
A,有料になります。サイズにより価格は異なります。,,,
Q,海鮮まるだい亭の住所と電話番号と営業時間を教えて下さい。,,,
A,お電話番号：0120-148-977　住所：札幌市中央区南4条西5丁目　F45ビル1・2階　営業時間：昼）11：00〜14：00　　　夜）17：00〜22：30,,,
Q,シーフードレストラン　オールドリバーの住所と電話番号と営業時間を教えて下さい。,,,
A,お電話番号：0133-62-4691　住所：石狩市新港東1丁目　営業時間：11：00〜18：30,,,
Q,石狩鮨以外も注文したいのですが送料は一緒ですか？一緒に届きますか？,,,
A,"鮨弁当の送料は航空便でのお届けになる為、1,296円となります。出荷場所が異なる為、他商品とのご同梱は出来かねます。別の便でのお届けになりますが、お日にちを揃えてのお届けは可能です。",,,
Q,石狩鮨の送料を教えて下さい。,,,
A,"航空便でのお届けとなりますので、送料が1,296円になります。",,,
Q,おせちの内容は変更できますか？,,,
A,申し訳ございませんが、内容の変更は出来かねます。,,,
Q,おせちは何日から何日までお届け可能ですか？店舗でも同じですか？,,,
A,おせちのお届け日は12月31日のみとさせていただいております。また、お時間のご指定はいただけない商品となっておりますので、予めご了承ください。店舗での引き取り時間は店舗により異なりますが、午前10時〜の引き渡しとなります。,,,
Q,個人情報の取り扱いは大丈夫ですか？,,,
A,個人情報の取り扱いに関しましては、情報漏えい等ないようにしっかりと管理しておりますので、ご安心ください。※詳しく聞かれる際は社員へ確認し、折り返しの対応としてください。,,,
Q,代金引換で支払いたいのですが領収書は頂けますか？後日届くのでしょうか？時期は？,,,
A,代金引換の場合は、商品に弊社宛の返信封筒をご同梱致しますので、ヤマト運輸の領収書をその封筒に入れて返送して頂き、それから佐藤水産の領収書を発行し、ご郵送となります。,,,
Q,通販6回目の利用ですが贈答品を送りたいと思います。振込み用紙を届けて欲しいのですが、いつ届きます？,,,
A,ご進物先様のみのご注文の場合は、商品出荷後にご依頼主様へお振込用紙をお送りさせていただきます。ご自宅へのご注文があれば、ご自宅への商品にご同梱となります。,,,
Q,通販初めての利用ですが、振込用紙の後払いでお願いできますか？,,,
A,弊社では先にご入金をいただき、入金確認後から1週間前後での商品のお届けとなります。クレジットカード払いや代金引換（本人届けのみ）でしたら、本日より1週間前後でのお届けが可能です。,,,
Q,通販初めての利用ですが、店舗ではよく購入しています。振込用紙の後払いでお願いできますか？,,,
A,通信販売では先にご入金をいただき、入金確認後から1週間前後での商品のお届けとなります。クレジットカード払いや代金引換（本人届けのみ）でしたら、本日より1週間前後でのお届けが可能です。,,,
Q,通販6回目の利用ですが贈答品を送りたいと思います。銀行振り込みにしたいのですが、前払いですか？,,,
A,ご進物先様のみのご注文の場合は、商品出荷後にご依頼主様へ銀行口座が記載されたお振込用紙をお送りさせていただきます。ご自宅へのご注文があれば、ご自宅への商品にご同梱となります。前払いをご希望でしたら、ご入金確認後の商品手配となりますので、ご了承くださいまた、銀行振込の場合は手数料がお客様ご負担となりますので、予めご了承ください。,,,
Q,通販初めての利用ですが贈答品を送りたいと思います。銀行振り込みにしたいのですが、前払いですか？,,,
A,銀行振込をご希望でしたら、口座番号、口座名等を口頭でお伝えさせていただきますので、ご入金確認後から1週間前後でのお届けとなります。,,,
Q,携帯番号しかないのですが登録は作れますか？また支払いは振込用紙の後払いはできますか？,,,
A,ご登録はお作りさせていただきます。お支払い方法につきましては、お振込の場合は先にご入金をいただき、入金確認後から1週間前後での商品のお届けとなります。クレジットカード払いや代金引換（本人届けのみ）でしたら、本日より1週間前後でのお届けが可能です。,,,
Q,領収書の宛名は上様で、但書は品代・商品代など発行をお願いできますか？,,,
A,弊社規定上、「上様」や「品代」での領収書の発行が出来かねます。宛名はお名前や会社様名を。但書は品代をご希望の場合は、「お品代（海産品代）」とさせていただきます。「贈答品代」や「お歳暮代」などの但し書でしたら承れます。,,,
Q,通販と店舗の送料はなぜ違うのですか？,,,
A,弊社店舗では商品をお買い求めいただいたお客様へご来店メンバーズカードを押印する事ができ、ポイントの還元が出来ますが、通信販売ではスタンプを押す事が出来かねてしまいますので、送料を店舗よりも安くご案内させていただいております。,,,
Q,通常発送だと遅いので急ぎの発送はできますか？送料は変わりますか？当日発送は可能ですか？,,,
A,お届けのご希望日に商品の手配が出来るか確認致しまして、折り返しご連絡をさせていただきます。送料に関しましては、急ぎ出荷の場合は+500円頂戴しております。また通信販売では、なるべく作り置きをせず手づくりにこだわり、弊社工場で詰めたての商品を出荷している為、当日の出荷は出来かねます。店舗でしたら、店頭の在庫を使用し、場合によりましては当日発送を承る事も可能でございます。,,,
Q,12/31に時間指定でお届けして欲しいのですが可能ですか？,,,
A,※承る日付によっても解答が変わります。　通常は12月29日がお届け指定日を承れる最終日となります。但し、過去に30〜31に届けてもらったというお客様やどうしてもというお客様のみ、下記の内容で案内をしてください。承る事は可能ですが、年末年始はヤマト運輸様でも非常に物量が多く、ご希望のお届け日時にお届けする事が難しくなっておりますが、ご了承いただけましたら承りが可能でございます。年末年始にご利用をお考えでしたら、天候や交通状況によってはご希望日に間に合わない事も考えられますので、何日か早めのお届けをおすすめ致します。,,,
Q,内のしと外のしの違いを教えて下さい。,,,
A,内熨斗とは商品に直接熨斗紙を掛け、その上から包装紙で包装をする事です。（熨斗が見えない状態）外熨斗は商品を包装紙で包装し、その上から熨斗紙を掛けた状態です。（熨斗が見える状態）※最近では贈り物を送る際は「内熨斗」が主流です。弊社では特に要望がない場合は、「短冊・内熨斗」で手配をします。　直接持参する場合や仏熨斗（志や御霊前等）は外熨斗が主流です。また、単品商品にお熨斗紙をご希望されるお客様もいますが、熨斗を付ける事が出来ない小さな商品や形が歪になってしまう商品もあるので、不明点は社員まで報告してください。,,,
,,,,
,,,,
,,,,
,,,,
,,,,
,,,,
,,,,
,,,,
,,,,
,,,,
,,,,
,,,,
,,,,
,,,,
,,,,
,,,,
,,,,
,,,,
,,,,
,,,,
,,,,
,,,,
,,,,
,,,,
